cat1;cat2;cat3;id;caption
finalColorBalance;;;activated;activated
finalColorBalance;;;activatedBalanceMap;activatedBalanceMap
finalColorBalance;;;activatedParametricBalance;activatedParametricBalance
finalColorBalance;vignette;;vignetteWeights;vignetteWeights
finalColorBalance;vignette;;vignetteColor;vignetteColor
finalColorBalance;vignette;;vignetteOpacity;vignetteOpacity
finalColorBalance;;;chromaticAberrationSize;chromaticAberrationSize
finalColorBalance;balance;;balanceMapLerp;balanceMapLerp
finalColorBalance;balance;;balanceMapAmount;balanceMapAmount
finalColorBalance;balance;;balancePostBrightness;balancePostBrightness
finalColorBalance;levels;;levelsShadows;levelsShadows
finalColorBalance;levels;;levelsMidtones;levelsMidtones
finalColorBalance;levels;;levelsHighlights;levelsHighlights
finalColorBalance;midtone;;midtoneRangeMin;midtoneRangeMin
finalColorBalance;midtone;;midtoneRangeMax;midtoneRangeMax
finalColorBalance;midtone;;midtoneMarginMin;midtoneMarginMin
finalColorBalance;midtone;;midtoneMarginMax;midtoneMarginMax
finalColorBalance;parametricBalanceLow;;parametricBalanceLow.saturation;saturation
finalColorBalance;parametricBalanceLow;;parametricBalanceLow.color;color
finalColorBalance;parametricBalanceMid;;parametricBalanceMid.saturation;saturation
finalColorBalance;parametricBalanceMid;;parametricBalanceMid.color;color
finalColorBalance;parametricBalanceHigh;;parametricBalanceHigh.saturation;saturation
finalColorBalance;parametricBalanceHigh;;parametricBalanceHigh.color;color
sharpen;;;activated;activated
sharpen;;;sharpenNear;sharpenNear
sharpen;;;sharpenFar;sharpenFar
sharpen;;;distanceNear;distanceNear
sharpen;;;distanceFar;distanceFar
sharpen;;;lumFilterOffset;lumFilterOffset
sharpen;;;lumFilterRange;lumFilterRange
paintEffect;;;activated;activated
paintEffect;;;amount;amount
ssaoNV;;;activated;activated
ssaoNV;;;radius;radius
ssaoNV;;;bias;bias
ssaoNV;;;detailStrength;detailStrength
ssaoNV;;;coarseStrength;coarseStrength
ssaoNV;;;powerExponent;powerExponent
ssaoNV;;;blurSharpness;blurSharpness
ssaoNV;;;valueClamp;valueClamp
ssaoNV;;;ssaoColor;ssaoColor
ssaoNV;;;nonAmbientInfluence;nonAmbientInfluence
ssaoNV;;;translucencyInfluence;translucencyInfluence
ssaoMS;;;activated;activated
ssaoMS;;;noiseFilterTolerance;noiseFilterTolerance
ssaoMS;;;blurTolerance;blurTolerance
ssaoMS;;;upsampleTolerance;upsampleTolerance
ssaoMS;;;rejectionFalloff;rejectionFalloff
ssaoMS;;;combineResolutionsBeforeBlur;combineResolutionsBeforeBlur
ssaoMS;;;combineResolutionsWithMul;combineResolutionsWithMul
ssaoMS;;;hierarchyDepth;hierarchyDepth
ssaoMS;;;normalAOMultiply;normalAOMultiply
ssaoMS;;;normalToDepthBrightnessEqualiser;normalToDepthBrightnessEqualiser
ssaoMS;;;normalBackProjectionTolerance;normalBackProjectionTolerance
globalLight;;;activated;activated
globalLight;;;activatedGlobalLightActivated;activatedGlobalLightActivated
globalLight;;;globalLightActivated;globalLightActivated
globalLight;;;activatedActivatedFactorLightDir;activatedActivatedFactorLightDir
globalLight;;;activatedFactorLightDir;activatedFactorLightDir
globalLight;sun;;sunColor;sunColor
globalLight;sun;;sunColorLightSide;sunColorLightSide
globalLight;sun;;sunColorLightOppositeSide;sunColorLightOppositeSide
globalLight;sun;;sunColorCenterArea;sunColorCenterArea
globalLight;sun;;sunColorSidesMargin;sunColorSidesMargin
globalLight;sun;;sunColorBottomHeight;sunColorBottomHeight
globalLight;sun;;sunColorTopHeight;sunColorTopHeight
globalLight;forced;;forcedLightDirAnglesYaw;LightDirAnglesYaw
globalLight;forced;;forcedLightDirAnglesPitch;LightDirAnglesPitch
globalLight;forced;;forcedLightDirAnglesRoll;LightDirAnglesRoll
globalLight;forced;;forcedSunDirAnglesYaw;SunDirAnglesYaw
globalLight;forced;;forcedSunDirAnglesPitch;SunDirAnglesPitch
globalLight;forced;;forcedSunDirAnglesRoll;SunDirAnglesRoll
globalLight;forced;;forcedMoonDirAnglesYaw;MoonDirAnglesYaw
globalLight;forced;;forcedMoonDirAnglesPitch;MoonDirAnglesPitch
globalLight;forced;;forcedMoonDirAnglesRoll;MoonDirAnglesRoll
globalLight;translucency;;translucencyViewDependency;ViewDependency
globalLight;translucency;;translucencyBaseFlatness;BaseFlatness
globalLight;translucency;;translucencyFlatBrightness;FlatBrightness
globalLight;translucency;;translucencyGainBrightness;GainBrightness
globalLight;translucency;;translucencyFresnelScaleLight;FresnelScaleLight
globalLight;translucency;;translucencyFresnelScaleReflection;FresnelScaleReflection
globalLight;envProbeBaseLighting;Ambient;envProbeBaseLightingAmbient.activated;activated
globalLight;envProbeBaseLighting;Ambient;envProbeBaseLightingAmbient.colorAmbient;colorAmbient
globalLight;envProbeBaseLighting;Ambient;envProbeBaseLightingAmbient.colorSceneAdd;colorSceneAdd
globalLight;envProbeBaseLighting;Ambient;envProbeBaseLightingAmbient.colorSkyTop;colorSkyTop
globalLight;envProbeBaseLighting;Ambient;envProbeBaseLightingAmbient.colorSkyHorizon;colorSkyHorizon
globalLight;envProbeBaseLighting;Ambient;envProbeBaseLightingAmbient.skyShape;skyShape
globalLight;envProbeBaseLighting;Reflection;envProbeBaseLightingReflection.activated;activated
globalLight;envProbeBaseLighting;Reflection;envProbeBaseLightingReflection.colorAmbient;colorAmbient
globalLight;envProbeBaseLighting;Reflection;envProbeBaseLightingReflection.colorSceneMul;colorSceneMul
globalLight;envProbeBaseLighting;Reflection;envProbeBaseLightingReflection.colorSceneAdd;colorSceneAdd
globalLight;envProbeBaseLighting;Reflection;envProbeBaseLightingReflection.colorSkyMul;colorSkyMul
globalLight;envProbeBaseLighting;Reflection;envProbeBaseLightingReflection.colorSkyAdd;colorSkyAdd
globalLight;envProbeBaseLighting;Reflection;envProbeBaseLightingReflection.remapOffset;remapOffset
globalLight;envProbeBaseLighting;Reflection;envProbeBaseLightingReflection.remapStrength;remapStrength
globalLight;envProbeBaseLighting;Reflection;envProbeBaseLightingReflection.remapClamp;remapClamp
globalLight;characters;LightingBoost;charactersLightingBoostAmbientLight;AmbientLight
globalLight;characters;LightingBoost;charactersLightingBoostAmbientShadow;AmbientShadow
globalLight;characters;LightingBoost;charactersLightingBoostReflectionLight;ReflectionLight
globalLight;characters;LightingBoost;charactersLightingBoostReflectionShadow;ReflectionShadow
globalLight;characters;;charactersEyeBlicksColor;EyeBlicksColor
globalLight;characters;;charactersEyeBlicksShadowedScale;EyeBlicksShadowedScale
globalLight;envProbe;;envProbeAmbientScaleLight;AmbientScaleLight
globalLight;envProbe;;envProbeAmbientScaleShadow;AmbientScaleShadow
globalLight;envProbe;;envProbeReflectionScaleLight;ReflectionScaleLight
globalLight;envProbe;;envProbeReflectionScaleShadow;ReflectionScaleShadow
globalLight;envProbe;;envProbeDistantScaleFactor;DistantScaleFactor
interiorFallback;;;activated;activated
interiorFallback;;;colorAmbientMul;colorAmbientMul
interiorFallback;;;colorReflectionLow;colorReflectionLow
interiorFallback;;;colorReflectionMiddle;colorReflectionMiddle
interiorFallback;;;colorReflectionHigh;colorReflectionHigh
speedTree;;;activated;activated
speedTree;;;diffuse;diffuse
speedTree;;;specularScale;specularScale
speedTree;;;translucencyScale;translucencyScale
speedTree;;;ambientOcclusionScale;ambientOcclusionScale
speedTree;;;billboardsColor;billboardsColor
speedTree;;;billboardsTranslucency;billboardsTranslucency
speedTree;randomColorsTrees;;randomColorsTrees.luminanceWeights;luminanceWeights
speedTree;randomColorsTrees;;randomColorsTrees.randomColor0;randomColor0
speedTree;randomColorsTrees;;randomColorsTrees.saturation0;saturation0
speedTree;randomColorsTrees;;randomColorsTrees.randomColor1;randomColor1
speedTree;randomColorsTrees;;randomColorsTrees.saturation1;saturation1
speedTree;randomColorsTrees;;randomColorsTrees.randomColor2;randomColor2
speedTree;randomColorsTrees;;randomColorsTrees.saturation2;saturation2
speedTree;randomColorsBranches;;randomColorsBranches.luminanceWeights;luminanceWeights
speedTree;randomColorsBranches;;randomColorsBranches.randomColor0;randomColor0
speedTree;randomColorsBranches;;randomColorsBranches.saturation0;saturation0
speedTree;randomColorsBranches;;randomColorsBranches.randomColor1;randomColor1
speedTree;randomColorsBranches;;randomColorsBranches.saturation1;saturation1
speedTree;randomColorsBranches;;randomColorsBranches.randomColor2;randomColor2
speedTree;randomColorsBranches;;randomColorsBranches.saturation2;saturation2
speedTree;randomColorsGrass;;randomColorsGrass.luminanceWeights;luminanceWeights
speedTree;randomColorsGrass;;randomColorsGrass.randomColor0;randomColor0
speedTree;randomColorsGrass;;randomColorsGrass.saturation0;saturation0
speedTree;randomColorsGrass;;randomColorsGrass.randomColor1;randomColor1
speedTree;randomColorsGrass;;randomColorsGrass.saturation1;saturation1
speedTree;randomColorsGrass;;randomColorsGrass.randomColor2;randomColor2
speedTree;randomColorsGrass;;randomColorsGrass.saturation2;saturation2
speedTree;;;randomColorsFallback;randomColorsFallback
speedTree;;;pigmentBrightness;pigmentBrightness
speedTree;;;pigmentFloodStartDist;pigmentFloodStartDist
speedTree;;;pigmentFloodRange;pigmentFloodRange
speedTree;;;billboardsLightBleed;billboardsLightBleed
toneMapping;;;activated;activated
toneMapping;;;skyLuminanceCustomValue;skyLuminanceCustomValue
toneMapping;;;skyLuminanceCustomAmount;skyLuminanceCustomAmount
toneMapping;;;luminanceLimitShape;luminanceLimitShape
toneMapping;;;luminanceLimitMin;luminanceLimitMin
toneMapping;;;luminanceLimitMax;luminanceLimitMax
toneMapping;;;rejectThreshold;rejectThreshold
toneMapping;;;rejectSmoothExtent;rejectSmoothExtent
toneMapping;newToneMap;CurveParameters;newToneMapCurveParameters.shoulderStrength;shoulderStrength
toneMapping;newToneMap;CurveParameters;newToneMapCurveParameters.linearStrength;linearStrength
toneMapping;newToneMap;CurveParameters;newToneMapCurveParameters.linearAngle;linearAngle
toneMapping;newToneMap;CurveParameters;newToneMapCurveParameters.toeStrength;toeStrength
toneMapping;newToneMap;CurveParameters;newToneMapCurveParameters.toeNumerator;toeNumerator
toneMapping;newToneMap;CurveParameters;newToneMapCurveParameters.toeDenominator;toeDenominator
toneMapping;newToneMap;;newToneMapWhitepoint;Whitepoint
toneMapping;newToneMap;;newToneMapPostScale;PostScale
toneMapping;;;exposureScale;exposureScale
toneMapping;;;postScale;postScale
bloomNew;;;activated;activated
bloomNew;;;brightPassWeights;brightPassWeights
bloomNew;;;color;color
bloomNew;;;dirtColor;dirtColor
bloomNew;;;threshold;threshold
bloomNew;;;thresholdRange;thresholdRange
bloomNew;;;brightnessMax;brightnessMax
bloomNew;shafts;;shaftsColor;shaftsColor
bloomNew;shafts;;shaftsRadius;shaftsRadius
bloomNew;shafts;;shaftsShapeExp;shaftsShapeExp
bloomNew;shafts;;shaftsShapeInvSquare;shaftsShapeInvSquare
bloomNew;shafts;;shaftsThreshold;shaftsThreshold
bloomNew;shafts;;shaftsThresholdRange;shaftsThresholdRange
globalFog;;;fogActivated;fogActivated
globalFog;;;fogAppearDistance;fogAppearDistance
globalFog;;;fogAppearRange;fogAppearRange
globalFog;;;fogColorFront;fogColorFront
globalFog;;;fogColorMiddle;fogColorMiddle
globalFog;;;fogColorBack;fogColorBack
globalFog;;;fogDensity;fogDensity
globalFog;;;fogFinalExp;fogFinalExp
globalFog;;;fogDistClamp;fogDistClamp
globalFog;;;fogVertOffset;fogVertOffset
globalFog;;;fogVertDensity;fogVertDensity
globalFog;;;fogVertDensityLightFront;fogVertDensityLightFront
globalFog;;;fogVertDensityLightBack;fogVertDensityLightBack
globalFog;;;fogSkyDensityScale;fogSkyDensityScale
globalFog;;;fogCloudsDensityScale;fogCloudsDensityScale
globalFog;;;fogSkyVertDensityLightFrontScale;fogSkyVertDensityLightFrontScale
globalFog;;;fogSkyVertDensityLightBackScale;fogSkyVertDensityLightBackScale
globalFog;;;fogVertDensityRimRange;fogVertDensityRimRange
globalFog;;;fogCustomColor;fogCustomColor
globalFog;;;fogCustomColorStart;fogCustomColorStart
globalFog;;;fogCustomColorRange;fogCustomColorRange
globalFog;;;fogCustomAmountScale;fogCustomAmountScale
globalFog;;;fogCustomAmountScaleStart;fogCustomAmountScaleStart
globalFog;;;fogCustomAmountScaleRange;fogCustomAmountScaleRange
globalFog;aerial;;aerialColorFront;aerialColorFront
globalFog;aerial;;aerialColorMiddle;aerialColorMiddle
globalFog;aerial;;aerialColorBack;aerialColorBack
globalFog;aerial;;aerialFinalExp;aerialFinalExp
globalFog;ssao;;ssaoImpactClamp;ssaoImpactClamp
globalFog;ssao;;ssaoImpactNearValue;ssaoImpactNearValue
globalFog;ssao;;ssaoImpactFarValue;ssaoImpactFarValue
globalFog;ssao;;ssaoImpactNearDistance;ssaoImpactNearDistance
globalFog;ssao;;ssaoImpactFarDistance;ssaoImpactFarDistance
globalFog;;;distantLightsIntensityScale;distantLightsIntensityScale
sky;;;activated;activated
sky;;;activatedActivateFactor;activatedActivateFactor
sky;;;activateFactor;activateFactor
sky;;;skyColor;skyColor
sky;;;skyColorHorizon;skyColorHorizon
sky;;;horizonVerticalAttenuation;horizonVerticalAttenuation
sky;sun;;sunColorSky;sunColorSky
sky;sun;;sunColorSkyBrightness;sunColorSkyBrightness
sky;sun;;sunAreaSkySize;sunAreaSkySize
sky;sun;;sunColorHorizon;sunColorHorizon
sky;sun;;sunColorHorizonHorizontalScale;sunColorHorizonHorizontalScale
sky;sun;;sunBackHorizonColor;sunBackHorizonColor
sky;sun;;sunInfluence;sunInfluence
sky;moon;;moonColorSky;moonColorSky
sky;moon;;moonColorSkyBrightness;moonColorSkyBrightness
sky;moon;;moonAreaSkySize;moonAreaSkySize
sky;moon;;moonColorHorizon;moonColorHorizon
sky;moon;;moonColorHorizonHorizontalScale;moonColorHorizonHorizontalScale
sky;moon;;moonBackHorizonColor;moonBackHorizonColor
sky;moon;;moonInfluence;moonInfluence
sky;;;globalSkyBrightness;globalSkyBrightness
depthOfField;;;activated;activated
depthOfField;;;nearBlurDist;nearBlurDist
depthOfField;;;nearFocusDist;nearFocusDist
depthOfField;;;farFocusDist;farFocusDist
depthOfField;;;farBlurDist;farBlurDist
depthOfField;;;intensity;intensity
depthOfField;;;activatedSkyThreshold;activatedSkyThreshold
depthOfField;;;skyThreshold;skyThreshold
depthOfField;;;activatedSkyRange;activatedSkyRange
depthOfField;;;skyRange;skyRange
colorModTransparency;;;activated;activated
colorModTransparency;;;commonFarDist;commonFarDist
colorModTransparency;;;filterNearColor;filterNearColor
colorModTransparency;;;filterFarColor;filterFarColor
colorModTransparency;;;contrastNearStrength;contrastNearStrength
colorModTransparency;;;contrastFarStrength;contrastFarStrength
colorModTransparency;autoHide;Custom0;autoHideCustom0.activated;activated
colorModTransparency;autoHide;Custom0;autoHideCustom0.distance;distance
colorModTransparency;autoHide;Custom0;autoHideCustom0.range;range
colorModTransparency;autoHide;Custom1;autoHideCustom1.activated;activated
colorModTransparency;autoHide;Custom1;autoHideCustom1.distance;distance
colorModTransparency;autoHide;Custom1;autoHideCustom1.range;range
colorModTransparency;autoHide;Custom2;autoHideCustom2.activated;activated
colorModTransparency;autoHide;Custom2;autoHideCustom2.distance;distance
colorModTransparency;autoHide;Custom2;autoHideCustom2.range;range
colorModTransparency;autoHide;Custom3;autoHideCustom3.activated;activated
colorModTransparency;autoHide;Custom3;autoHideCustom3.distance;distance
colorModTransparency;autoHide;Custom3;autoHideCustom3.range;range
shadows;;;activatedAutoHide;activatedAutoHide
shadows;;;autoHideBoxSizeMin;autoHideBoxSizeMin
shadows;;;autoHideBoxSizeMax;autoHideBoxSizeMax
shadows;;;autoHideBoxCompMaxX;autoHideBoxCompMaxX)
shadows;;;autoHideBoxCompMaxY;autoHideBoxCompMaxY)
shadows;;;autoHideBoxCompMaxZ;autoHideBoxCompMaxZ)
shadows;;;autoHideDistScale;autoHideDistScale
water;;;activated;activated
water;;;waterFlowIntensity;waterFlowIntensity
water;;;underwaterBrightness;underwaterBrightness
water;;;underWaterFogIntensity;underWaterFogIntensity
water;;;waterColor;waterColor
water;;;underWaterColor;underWaterColor
water;;;waterFresnel;waterFresnel
water;;;waterCaustics;waterCaustics
water;;;waterFoamIntensity;waterFoamIntensity
water;;;waterAmbientScale;waterAmbientScale
water;;;waterDiffuseScale;waterDiffuseScale
colorGroups;;;activated;activated
colorGroups;;;defaultGroup;defaultGroup
colorGroups;lights;;lightsDefault;lightsDefault
colorGroups;lights;;lightsDawn;lightsDawn
colorGroups;lights;;lightsNoon;lightsNoon
colorGroups;lights;;lightsEvening;lightsEvening
colorGroups;lights;;lightsNight;lightsNight
colorGroups;fx;;fxDefault;fxDefault
colorGroups;fx;;fxBlood;fxBlood
colorGroups;fx;;fxWater;fxWater
colorGroups;fx;;fxFog;fxFog
colorGroups;fx;;fxTrails;fxTrails
colorGroups;fx;;fxScreenParticles;fxScreenParticles
colorGroups;fx;fire;fxFire;fxFire
colorGroups;fx;fire;fxFireFlares;fxFireFlares
colorGroups;fx;fire;fxFireLight;fxFireLight
colorGroups;fx;smoke;fxSmoke;fxSmoke
colorGroups;fx;smoke;fxSmokeExplosion;fxSmokeExplosion
colorGroups;fx;sky;fxSky;fxSky
colorGroups;fx;sky;fxSkyAlpha;fxSkyAlpha
colorGroups;fx;sky;fxSkyNight;fxSkyNight
colorGroups;fx;sky;fxSkyNightAlpha;fxSkyNightAlpha
colorGroups;fx;sky;fxSkyDawn;fxSkyDawn
colorGroups;fx;sky;fxSkyDawnAlpha;fxSkyDawnAlpha
colorGroups;fx;sky;fxSkyNoon;fxSkyNoon
colorGroups;fx;sky;fxSkyNoonAlpha;fxSkyNoonAlpha
colorGroups;fx;sky;fxSkySunset;fxSkySunset
colorGroups;fx;sky;fxSkySunsetAlpha;fxSkySunsetAlpha
colorGroups;fx;sky;fxSkyRain;fxSkyRain
colorGroups;fx;sky;fxSkyRainAlpha;fxSkyRainAlpha
colorGroups;fx;lightShafts;fxLightShaft;LightShaft
colorGroups;fx;lightShafts;fxLightShaftSun;LightShaftSun
colorGroups;fx;lightShafts;fxLightShaftInteriorDawn;LightShaftInteriorDawn
colorGroups;fx;lightShafts;fxLightShaftSpotlightDawn;LightShaftSpotlightDawn
colorGroups;fx;lightShafts;fxLightShaftReflectionLightDawn;LightShaftReflectionLightDawn
colorGroups;fx;lightShafts;fxLightShaftInteriorNoon;LightShaftInteriorNoon
colorGroups;fx;lightShafts;fxLightShaftSpotlightNoon;LightShaftSpotlightNoon
colorGroups;fx;lightShafts;fxLightShaftReflectionLightNoon;LightShaftReflectionLightNoon
colorGroups;fx;lightShafts;fxLightShaftInteriorEvening;LightShaftInteriorEvening
colorGroups;fx;lightShafts;fxLightShaftSpotlightEvening;LightShaftSpotlightEvening
colorGroups;fx;lightShafts;fxLightShaftReflectionLightEvening;LightShaftReflectionLightEvening
colorGroups;fx;lightShafts;fxLightShaftInteriorNight;LightShaftInteriorNight
colorGroups;fx;lightShafts;fxLightShaftSpotlightNight;LightShaftSpotlightNight
colorGroups;fx;lightShafts;fxLightShaftReflectionLightNight;LightShaftReflectionLightNight
colorGroups;clouds;;mainCloudsMiddle;mainCloudsMiddle
colorGroups;clouds;;mainCloudsMiddleAlpha;mainCloudsMiddleAlpha
colorGroups;clouds;;mainCloudsFront;mainCloudsFront
colorGroups;clouds;;mainCloudsFrontAlpha;mainCloudsFrontAlpha
colorGroups;clouds;;mainCloudsBack;mainCloudsBack
colorGroups;clouds;;mainCloudsBackAlpha;mainCloudsBackAlpha
colorGroups;clouds;;mainCloudsRim;mainCloudsRim
colorGroups;clouds;;mainCloudsRimAlpha;mainCloudsRimAlpha
colorGroups;background;clouds;backgroundCloudsFront;backgroundCloudsFront
colorGroups;background;clouds;backgroundCloudsFrontAlpha;backgroundCloudsFrontAlpha
colorGroups;background;clouds;backgroundCloudsBack;backgroundCloudsBack
colorGroups;background;clouds;backgroundCloudsBackAlpha;backgroundCloudsBackAlpha
colorGroups;background;haze;backgroundHazeFront;backgroundHazeFront
colorGroups;background;haze;backgroundHazeFrontAlpha;backgroundHazeFrontAlpha
colorGroups;background;haze;backgroundHazeBack;backgroundHazeBack
colorGroups;background;haze;backgroundHazeBackAlpha;backgroundHazeBackAlpha
colorGroups;;;activatedCustom0;activatedCustom0
colorGroups;;;customGroup0;customGroup0
colorGroups;;;activatedCustom1;activatedCustom1
colorGroups;;;customGroup1;customGroup1
colorGroups;;;activatedCustom2;activatedCustom2
colorGroups;;;customGroup2;customGroup2
flareColorGroups;;;activated;activated
flareColorGroups;custom0;;custom0.activated;activated
flareColorGroups;custom0;;custom0.color0;color0
flareColorGroups;custom0;;custom0.opacity0;opacity0
flareColorGroups;custom0;;custom0.color1;color1
flareColorGroups;custom0;;custom0.opacity1;opacity1
flareColorGroups;custom0;;custom0.color2;color2
flareColorGroups;custom0;;custom0.opacity2;opacity2
flareColorGroups;custom0;;custom0.color3;color3
flareColorGroups;custom0;;custom0.opacity3;opacity3
flareColorGroups;custom1;;custom1.activated;activated
flareColorGroups;custom1;;custom1.color0;color0
flareColorGroups;custom1;;custom1.opacity0;opacity0
flareColorGroups;custom1;;custom1.color1;color1
flareColorGroups;custom1;;custom1.opacity1;opacity1
flareColorGroups;custom1;;custom1.color2;color2
flareColorGroups;custom1;;custom1.opacity2;opacity2
flareColorGroups;custom1;;custom1.color3;color3
flareColorGroups;custom1;;custom1.opacity3;opacity3
flareColorGroups;custom2;;custom2.activated;activated
flareColorGroups;custom2;;custom2.color0;color0
flareColorGroups;custom2;;custom2.opacity0;opacity0
flareColorGroups;custom2;;custom2.color1;color1
flareColorGroups;custom2;;custom2.opacity1;opacity1
flareColorGroups;custom2;;custom2.color2;color2
flareColorGroups;custom2;;custom2.opacity2;opacity2
flareColorGroups;custom2;;custom2.color3;color3
flareColorGroups;custom2;;custom2.opacity3;opacity3
sunAndMoonParams;;;activated;activated
sunAndMoonParams;sun;;sunSize;sunSize
sunAndMoonParams;sun;;sunColor;sunColor
sunAndMoonParams;sun;flare;sunFlareSize;sunFlareSize
sunAndMoonParams;sun;flare;sunFlareColor.activated;activated
sunAndMoonParams;sun;flare;sunFlareColor.color0;color0
sunAndMoonParams;sun;flare;sunFlareColor.opacity0;opacity0
sunAndMoonParams;sun;flare;sunFlareColor.color1;color1
sunAndMoonParams;sun;flare;sunFlareColor.opacity1;opacity1
sunAndMoonParams;sun;flare;sunFlareColor.color2;color2
sunAndMoonParams;sun;flare;sunFlareColor.opacity2;opacity2
sunAndMoonParams;sun;flare;sunFlareColor.color3;color3
sunAndMoonParams;sun;flare;sunFlareColor.opacity3;opacity3
sunAndMoonParams;moon;;moonSize;moonSize
sunAndMoonParams;moon;;moonColor;moonColor
sunAndMoonParams;moon;flare;moonFlareSize;moonFlareSize
sunAndMoonParams;moon;flare;moonFlareColor.activated;activated
sunAndMoonParams;moon;flare;moonFlareColor.color0;color0
sunAndMoonParams;moon;flare;moonFlareColor.opacity0;opacity0
sunAndMoonParams;moon;flare;moonFlareColor.color1;color1
sunAndMoonParams;moon;flare;moonFlareColor.opacity1;opacity1
sunAndMoonParams;moon;flare;moonFlareColor.color2;color2
sunAndMoonParams;moon;flare;moonFlareColor.opacity2;opacity2
sunAndMoonParams;moon;flare;moonFlareColor.color3;color3
sunAndMoonParams;moon;flare;moonFlareColor.opacity3;opacity3
windParams;;;activated;activated
windParams;;;windStrengthOverride;windStrengthOverride
windParams;;;cloudsVelocityOverride;cloudsVelocityOverride
gameplayEffects;;;activated;activated
gameplayEffects;;;catEffectBrightnessMultiply;catEffectBrightnessMultiply
gameplayEffects;;;behaviorAnimationMultiplier;behaviorAnimationMultiplier
gameplayEffects;;;specularityMultiplier;specularityMultiplier
gameplayEffects;;;glossinessMultiplier;glossinessMultiplier
motionBlur;;;activated;activated
motionBlur;;;strength;strength
cameraLightsSetup;;;activated;activated
cameraLightsSetup;gameplayLight0;;gameplayLight0.activated;activated
cameraLightsSetup;gameplayLight0;;gameplayLight0.color;color
cameraLightsSetup;gameplayLight0;;gameplayLight0.attenuation;attenuation
cameraLightsSetup;gameplayLight0;;gameplayLight0.radius;radius
cameraLightsSetup;gameplayLight0;;gameplayLight0.offsetFront;offsetFront
cameraLightsSetup;gameplayLight0;;gameplayLight0.offsetRight;offsetRight
cameraLightsSetup;gameplayLight0;;gameplayLight0.offsetUp;offsetUp
cameraLightsSetup;gameplayLight1;;gameplayLight1.activated;activated
cameraLightsSetup;gameplayLight1;;gameplayLight1.color;color
cameraLightsSetup;gameplayLight1;;gameplayLight1.attenuation;attenuation
cameraLightsSetup;gameplayLight1;;gameplayLight1.radius;radius
cameraLightsSetup;gameplayLight1;;gameplayLight1.offsetFront;offsetFront
cameraLightsSetup;gameplayLight1;;gameplayLight1.offsetRight;offsetRight
cameraLightsSetup;gameplayLight1;;gameplayLight1.offsetUp;offsetUp
cameraLightsSetup;sceneLight0;;sceneLight0.activated;activated
cameraLightsSetup;sceneLight0;;sceneLight0.color;color
cameraLightsSetup;sceneLight0;;sceneLight0.attenuation;attenuation
cameraLightsSetup;sceneLight0;;sceneLight0.radius;radius
cameraLightsSetup;sceneLight0;;sceneLight0.offsetFront;offsetFront
cameraLightsSetup;sceneLight0;;sceneLight0.offsetRight;offsetRight
cameraLightsSetup;sceneLight0;;sceneLight0.offsetUp;offsetUp
cameraLightsSetup;sceneLight1;;sceneLight1.activated;activated
cameraLightsSetup;sceneLight1;;sceneLight1.color;color
cameraLightsSetup;sceneLight1;;sceneLight1.attenuation;attenuation
cameraLightsSetup;sceneLight1;;sceneLight1.radius;radius
cameraLightsSetup;sceneLight1;;sceneLight1.offsetFront;offsetFront
cameraLightsSetup;sceneLight1;;sceneLight1.offsetRight;offsetRight
cameraLightsSetup;sceneLight1;;sceneLight1.offsetUp;offsetUp
cameraLightsSetup;dialogLight0;;dialogLight0.activated;activated
cameraLightsSetup;dialogLight0;;dialogLight0.color;color
cameraLightsSetup;dialogLight0;;dialogLight0.attenuation;attenuation
cameraLightsSetup;dialogLight0;;dialogLight0.radius;radius
cameraLightsSetup;dialogLight0;;dialogLight0.offsetFront;offsetFront
cameraLightsSetup;dialogLight0;;dialogLight0.offsetRight;offsetRight
cameraLightsSetup;dialogLight0;;dialogLight0.offsetUp;offsetUp
cameraLightsSetup;dialogLight1;;dialogLight1.activated;activated
cameraLightsSetup;dialogLight1;;dialogLight1.color;color
cameraLightsSetup;dialogLight1;;dialogLight1.attenuation;attenuation
cameraLightsSetup;dialogLight1;;dialogLight1.radius;radius
cameraLightsSetup;dialogLight1;;dialogLight1.offsetFront;offsetFront
cameraLightsSetup;dialogLight1;;dialogLight1.offsetRight;offsetRight
cameraLightsSetup;dialogLight1;;dialogLight1.offsetUp;offsetUp
cameraLightsSetup;interiorLight0;;interiorLight0.activated;activated
cameraLightsSetup;interiorLight0;;interiorLight0.color;color
cameraLightsSetup;interiorLight0;;interiorLight0.attenuation;attenuation
cameraLightsSetup;interiorLight0;;interiorLight0.radius;radius
cameraLightsSetup;interiorLight0;;interiorLight0.offsetFront;offsetFront
cameraLightsSetup;interiorLight0;;interiorLight0.offsetRight;offsetRight
cameraLightsSetup;interiorLight0;;interiorLight0.offsetUp;offsetUp
cameraLightsSetup;interiorLight1;;interiorLight1.activated;activated
cameraLightsSetup;interiorLight1;;interiorLight1.color;color
cameraLightsSetup;interiorLight1;;interiorLight1.attenuation;attenuation
cameraLightsSetup;interiorLight1;;interiorLight1.radius;radius
cameraLightsSetup;interiorLight1;;interiorLight1.offsetFront;offsetFront
cameraLightsSetup;interiorLight1;;interiorLight1.offsetRight;offsetRight
cameraLightsSetup;interiorLight1;;interiorLight1.offsetUp;offsetUp
cameraLightsSetup;;;playerInInteriorLightsScale;playerInInteriorLightsScale
cameraLightsSetup;;;sceneLightColorInterior0;sceneLightColorInterior0
cameraLightsSetup;;;sceneLightColorInterior1;sceneLightColorInterior1
cameraLightsSetup;;;cameraLightsNonCharacterScale;cameraLightsNonCharacterScale
dialogLightParams;;;activated;activated
dialogLightParams;;;lightColor;lightColor
dialogLightParams;;;lightColor2;lightColor2
dialogLightParams;;;lightColor3;lightColor3
